[
  {
    "common_name": "",
    "id": 1,
    "name": "Max Health"
  },
  {
    "common_name": "",
    "id": 16,
    "name": "Strength"
  },
  {
    "common_name": "",
    "id": 17,
    "name": "Agility"
  },
  {
    "common_name": "",
    "id": 18,
    "name": "Stamina"
  },
  {
    "common_name": "",
    "id": 19,
    "name": "Intelligence"
  },
  {
    "common_name": "",
    "id": 20,
    "name": "Sense"
  },
  {
    "common_name": "",
    "id": 21,
    "name": "Psychic"
  },
  {
    "common_name": "",
    "id": 22,
    "name": "Attack rating"
  },
  {
    "common_name": "",
    "id": 35,
    "name": "Damage to Pet"
  },
  {
    "common_name": "",
    "id": 39,
    "name": "Damage To Pet Damage Multiplier"
  },
  {
    "common_name": "",
    "id": 45,
    "name": "Free deck slot"
  },
  {
    "common_name": "",
    "id": 51,
    "name": "Aggdef"
  },
  {
    "common_name": "Projectile AC",
    "id": 90,
    "name": "Imp/Proj AC"
  },
  {
    "common_name": "Melee/Martial Arts AC",
    "id": 91,
    "name": "Melee/ma AC"
  },
  {
    "common_name": "",
    "id": 92,
    "name": "Energy AC"
  },
  {
    "common_name": "",
    "id": 93,
    "name": "Chemical AC"
  },
  {
    "common_name": "",
    "id": 94,
    "name": "Radiation AC"
  },
  {
    "common_name": "",
    "id": 95,
    "name": "Cold AC"
  },
  {
    "common_name": "",
    "id": 96,
    "name": "Disease AC"
  },
  {
    "common_name": "",
    "id": 97,
    "name": "Fire AC"
  },
  {
    "common_name": "",
    "id": 100,
    "name": "Martial Arts"
  },
  {
    "common_name": "Multi Melee",
    "id": 101,
    "name": "Mult. Melee"
  },
  {
    "common_name": "1 handed blunt",
    "id": 102,
    "name": "1h Blunt"
  },
  {
    "common_name": "1 handed edged",
    "id": 103,
    "name": "1h Edged"
  },
  {
    "common_name": "Melee Energy",
    "id": 104,
    "name": "Melee Ener."
  },
  {
    "common_name": "2 handed edged",
    "id": 105,
    "name": "2h Edged"
  },
  {
    "common_name": "",
    "id": 106,
    "name": "Piercing"
  },
  {
    "common_name": "2 handed blunt",
    "id": 107,
    "name": "2h Blunt"
  },
  {
    "common_name": "Sharp Objects",
    "id": 108,
    "name": "Sharp Obj"
  },
  {
    "common_name": "",
    "id": 109,
    "name": "Grenade"
  },
  {
    "common_name": "",
    "id": 110,
    "name": "Heavy Weapons"
  },
  {
    "common_name": "",
    "id": 111,
    "name": "Bow"
  },
  {
    "common_name": "",
    "id": 112,
    "name": "Pistol"
  },
  {
    "common_name": "",
    "id": 113,
    "name": "Rifle"
  },
  {
    "common_name": "",
    "id": 114,
    "name": "MG / SMG"
  },
  {
    "common_name": "",
    "id": 115,
    "name": "Shotgun"
  },
  {
    "common_name": "Assault Rifle",
    "id": 116,
    "name": "Assault Rif"
  },
  {
    "common_name": "",
    "id": 117,
    "name": "Vehicle Water"
  },
  {
    "common_name": "Melee Initiative",
    "id": 118,
    "name": "Melee. Init."
  },
  {
    "common_name": "Ranged Initiative",
    "id": 119,
    "name": "Ranged. Init."
  },
  {
    "common_name": "Physical Initiative",
    "id": 120,
    "name": "Physic. Init"
  },
  {
    "common_name": "Bow Special Attack",
    "id": 121,
    "name": "Bow Spc Att"
  },
  {
    "common_name": "Sensory Improvement",
    "id": 122,
    "name": "Sensory Impr"
  },
  {
    "common_name": "",
    "id": 123,
    "name": "First Aid"
  },
  {
    "common_name": "",
    "id": 124,
    "name": "Treatment"
  },
  {
    "common_name": "Mechanical Engineering",
    "id": 125,
    "name": "Mech. Engi"
  },
  {
    "common_name": "Electrical Engineering",
    "id": 126,
    "name": "Elec. Engi"
  },
  {
    "common_name": "Matter Metamorphosis",
    "id": 127,
    "name": "Matt. Metam"
  },
  {
    "common_name": "Biological Metamorphosis",
    "id": 128,
    "name": "Bio Metamor"
  },
  {
    "common_name": "Pychological Modifications",
    "id": 129,
    "name": "Psycho Modi"
  },
  {
    "common_name": "Matter Creation",
    "id": 130,
    "name": "Matter Crea"
  },
  {
    "common_name": "",
    "id": 131,
    "name": "Time&Space"
  },
  {
    "common_name": "",
    "id": 132,
    "name": "Nano Pool"
  },
  {
    "common_name": "Ranged Energy",
    "id": 133,
    "name": "Ranged Ener"
  },
  {
    "common_name": "",
    "id": 134,
    "name": "Multi Ranged"
  },
  {
    "common_name": "",
    "id": 135,
    "name": "Trap Disarm."
  },
  {
    "common_name": "",
    "id": 136,
    "name": "Perception"
  },
  {
    "common_name": "",
    "id": 137,
    "name": "Adventuring"
  },
  {
    "common_name": "",
    "id": 138,
    "name": "Swimming"
  },
  {
    "common_name": "",
    "id": 139,
    "name": "Vehicle Air"
  },
  {
    "common_name": "",
    "id": 141,
    "name": "Tutoring"
  },
  {
    "common_name": "",
    "id": 142,
    "name": "Brawling"
  },
  {
    "common_name": "",
    "id": 143,
    "name": "Riposte"
  },
  {
    "common_name": "",
    "id": 144,
    "name": "Dimach"
  },
  {
    "common_name": "",
    "id": 145,
    "name": "Deflect"
  },
  {
    "common_name": "Sneak Attack",
    "id": 146,
    "name": "Sneak Atck"
  },
  {
    "common_name": "",
    "id": 147,
    "name": "Fast Attack"
  },
  {
    "common_name": "",
    "id": 148,
    "name": "Burst"
  },
  {
    "common_name": "Nano Cast Initiative",
    "id": 149,
    "name": "NanoC. Init."
  },
  {
    "common_name": "",
    "id": 150,
    "name": "Fling Shot"
  },
  {
    "common_name": "",
    "id": 151,
    "name": "Aimed Shot"
  },
  {
    "common_name": "Body Development",
    "id": 152,
    "name": "Body Dev."
  },
  {
    "common_name": "Duck Explosives",
    "id": 153,
    "name": "Duck-Exp"
  },
  {
    "common_name": "Dodge Range",
    "id": 154,
    "name": "Dodge-Rng"
  },
  {
    "common_name": "Evade Close Combat",
    "id": 155,
    "name": "Evade-ClsC"
  },
  {
    "common_name": "",
    "id": 156,
    "name": "Run Speed"
  },
  {
    "common_name": "",
    "id": 157,
    "name": "Quantum FT"
  },
  {
    "common_name": "Weapon Smithing",
    "id": 158,
    "name": "Weapon Smt"
  },
  {
    "common_name": "",
    "id": 159,
    "name": "Pharma Tech"
  },
  {
    "common_name": "Nano Programming",
    "id": 160,
    "name": "Nano Progra"
  },
  {
    "common_name": "Computer Literacy",
    "id": 161,
    "name": "Comp. Liter"
  },
  {
    "common_name": "",
    "id": 162,
    "name": "Psychology"
  },
  {
    "common_name": "",
    "id": 163,
    "name": "Chemistry"
  },
  {
    "common_name": "",
    "id": 164,
    "name": "Concealment"
  },
  {
    "common_name": "Breaking and Entering",
    "id": 165,
    "name": "Break&Entry"
  },
  {
    "common_name": "",
    "id": 166,
    "name": "Vehicle Ground"
  },
  {
    "common_name": "",
    "id": 167,
    "name": "Full Auto"
  },
  {
    "common_name": "",
    "id": 168,
    "name": "Nano Resist"
  },
  {
    "common_name": "",
    "id": 180,
    "name": "Used NCU"
  },
  {
    "common_name": "",
    "id": 181,
    "name": "Max NCU"
  },
  {
    "common_name": "",
    "id": 201,
    "name": "Aggressiveness"
  },
  {
    "common_name": "",
    "id": 205,
    "name": "ReflectProjectileAC"
  },
  {
    "common_name": "",
    "id": 206,
    "name": "ReflectMeleeAC"
  },
  {
    "common_name": "",
    "id": 207,
    "name": "ReflectEnergyAC"
  },
  {
    "common_name": "",
    "id": 208,
    "name": "ReflectChemicalAC"
  },
  {
    "common_name": "",
    "id": 216,
    "name": "ReflectRadiationAC"
  },
  {
    "common_name": "",
    "id": 217,
    "name": "ReflectColdAC"
  },
  {
    "common_name": "",
    "id": 218,
    "name": "ReflectNanoAC"
  },
  {
    "common_name": "",
    "id": 219,
    "name": "ReflectFireAC"
  },
  {
    "common_name": "",
    "id": 221,
    "name": "Max Nano"
  },
  {
    "common_name": "",
    "id": 225,
    "name": "ReflectPoisonAC"
  },
  {
    "common_name": "",
    "id": 226,
    "name": "ShieldProjectileAC"
  },
  {
    "common_name": "",
    "id": 227,
    "name": "ShieldMeleeAC"
  },
  {
    "common_name": "",
    "id": 228,
    "name": "ShieldEnergyAC"
  },
  {
    "common_name": "",
    "id": 229,
    "name": "ShieldChemicalAC"
  },
  {
    "common_name": "",
    "id": 230,
    "name": "ShieldRadiationAC"
  },
  {
    "common_name": "",
    "id": 231,
    "name": "ShieldColdAC"
  },
  {
    "common_name": "",
    "id": 232,
    "name": "ShieldNanoAC"
  },
  {
    "common_name": "",
    "id": 233,
    "name": "ShieldFireAC"
  },
  {
    "common_name": "",
    "id": 234,
    "name": "ShieldPoisonAC"
  },
  {
    "common_name": "",
    "id": 276,
    "name": "Add All Off."
  },
  {
    "common_name": "",
    "id": 277,
    "name": "Add All Def."
  },
  {
    "common_name": "",
    "id": 278,
    "name": "Add. Proj. Dam."
  },
  {
    "common_name": "",
    "id": 279,
    "name": "Add. Melee Dam."
  },
  {
    "common_name": "",
    "id": 280,
    "name": "Add. Energy Dam."
  },
  {
    "common_name": "",
    "id": 281,
    "name": "Add. Chem. Dam."
  },
  {
    "common_name": "",
    "id": 282,
    "name": "Add. Rad. Dam."
  },
  {
    "common_name": "",
    "id": 311,
    "name": "Add. Cold Dam."
  },
  {
    "common_name": "",
    "id": 315,
    "name": "Add. Nano Dam."
  },
  {
    "common_name": "",
    "id": 316,
    "name": "Add. Fire Dam."
  },
  {
    "common_name": "",
    "id": 317,
    "name": "Add. Poison Dam."
  },
  {
    "common_name": "",
    "id": 318,
    "name": "% Add. Nano Cost"
  },
  {
    "common_name": "",
    "id": 319,
    "name": "% Add. Xp"
  },
  {
    "common_name": "",
    "id": 343,
    "name": "HealDelta"
  },
  {
    "common_name": "",
    "id": 360,
    "name": "Scale"
  },
  {
    "common_name": "Nano Delta",
    "id": 364,
    "name": "NanoDelta"
  },
  {
    "common_name": "",
    "id": 379,
    "name": "CriticalIncrease"
  },
  {
    "common_name": "Ranged Increase Weapon",
    "id": 380,
    "name": "RangeInc. Weapon"
  },
  {
    "common_name": "Ranged Increase Nano",
    "id": 381,
    "name": "RangeInc. NF"
  },
  {
    "common_name": "",
    "id": 382,
    "name": "SkillLockModifier"
  },
  {
    "common_name": "",
    "id": 383,
    "name": "Decreased Nano-Interrupt Modifier %"
  },
  {
    "common_name": "",
    "id": 391,
    "name": "Critical Decrease"
  },
  {
    "common_name": "",
    "id": 475,
    "name": "MaxReflectedProjectileDmg"
  },
  {
    "common_name": "",
    "id": 476,
    "name": "MaxReflectedMeleeDmg"
  },
  {
    "common_name": "",
    "id": 477,
    "name": "MaxReflectedEnergyDmg"
  },
  {
    "common_name": "",
    "id": 478,
    "name": "MaxReflectedChemicalDmg"
  },
  {
    "common_name": "",
    "id": 479,
    "name": "MaxReflectedRadiationDmg"
  },
  {
    "common_name": "",
    "id": 480,
    "name": "MaxReflectedColdDmg"
  },
  {
    "common_name": "",
    "id": 481,
    "name": "MaxReflectedNanoDmg"
  },
  {
    "common_name": "",
    "id": 482,
    "name": "MaxReflectedFireDmg"
  },
  {
    "common_name": "",
    "id": 483,
    "name": "MaxReflectedPoisonDmg"
  },
  {
    "common_name": "",
    "id": 535,
    "name": "Healing Efficiency"
  },
  {
    "common_name": "",
    "id": 536,
    "name": "Direct Nano Damage Efficiency"
  },
  {
    "common_name": "",
    "id": 593,
    "name": "Regain XP Percentage"
  },
  {
    "common_name": "",
    "id": 689,
    "name": "Heal Reactivity"
  }
]